####
#
#	OBJ File Generated by LightWave3D
#	LightWave3D OBJ Export v2.3
#
####
o mt_turret.obj
mtllib mt_turret.mtl
g default
v -0.52 -0.1725 0.148824
v -0.52 -0.1725 -0.451176
v -0.52 0.1725 0.148824
v -0.52 0.1725 -0.451176
v -0.34 -0.1125 0.668824
v -0.34 0.1125 0.668824
v -0.22 -0.1725 0.148824
v -0.22 -0.1725 -0.711176
v -0.22 -0.1125 0.711176
v -0.22 0.1125 0.711176
v -0.22 0.1725 0.148824
v -0.22 0.1725 -0.711176
v -4.3547e-017 -0.1725 -0.711176
v -4.3547e-017 0.1725 -0.711176
v 9.11282e-018 -0.1725 0.148824
v 9.11282e-018 0.1725 0.148824
v 0.22 -0.1725 0.148824
v 0.22 -0.1725 -0.711176
v 0.22 -0.1125 0.711176
v 0.22 0.1125 0.711176
v 0.22 0.1725 0.148824
v 0.22 0.1725 -0.711176
v 0.34 -0.1125 0.668824
v 0.34 0.1125 0.668824
v 0.52 -0.1725 0.148824
v 0.52 -0.1725 -0.451176
v 0.52 0.1725 0.148824
v 0.52 0.1725 -0.451176
vn -0.797165 -0.481691 -0.364008
vn -0.797165 0.481691 -0.364008
vn -0.748266 0.456215 0.481627
vn -0.689738 -0.70691 0.15665
vn -0.689738 0.70691 0.15665
vn -0.467919 0.706942 0.530363
vn -0.467919 -0.706942 0.530363
vn -0.399547 -0.630418 0.665534
vn -0.395055 -0.802572 0.447001
vn -0.238966 -0.729743 -0.640601
vn -0.238966 0.729743 -0.640601
vn -0.184271 0.954694 0.233672
vn -0.00937013 -0.998429 0.0552525
vn -0.00937013 0.998428 0.0552525
vn 0 -0.707107 0.707107
vn 0 -0.707107 -0.707107
vn 0 0.447214 0.894427
vn 0 0.707107 -0.707107
vn 0.238966 -0.729743 -0.640601
vn 0.238966 0.729743 -0.640601
vn 0.399547 -0.630418 0.665534
vn 0.467919 -0.706942 0.530363
vn 0.467919 0.706942 0.530363
vn 0.612104 0.739734 -0.279504
vn 0.689738 -0.70691 0.15665
vn 0.689738 0.70691 0.15665
vn 0.707107 0 0.707107
vn 0.748266 0.456215 0.481627
vn 0.797165 -0.481691 -0.364008
usemtl Default
s off
f 5//7 6//6 3//5 1//4
f 1//4 3//5 4//2 2//1
f 13//16 8//10 12//11 14//18
f 4//2 12//11 8//10 2//1
f 2//1 8//10 7//13 1//4
f 15//15 7//13 8//10 13//16
f 5//7 9//21 10//28 6//6
f 27//26 24//23 23//22 25//25
f 28//24 27//26 25//25 26//29
f 22//20 18//19 13//16 14//18
f 18//19 22//20 28//24 26//29
f 17//9 18//19 26//29 25//25
f 18//19 17//9 15//15 13//16
f 20//3 19//8 23//22 24//23
f 11//27 10//28 7//27
f 10//28 9//21 7//27
f 15//15 16//17 7//27
f 16//17 11//27 7//27
f 17//9 16//17 15//15
f 21//12 16//17 17//9
f 20//3 21//12 17//9
f 19//8 20//3 17//9
f 10//28 11//14 6//6
f 11//14 3//5 6//6
f 27//26 21//12 24//23
f 24//23 21//12 20//3
f 4//2 3//5 11//14 12//11
f 16//17 14//18 12//11 11//14
f 27//26 28//24 21//12
f 21//12 28//24 22//20
f 16//17 21//12 22//20 14//18
f 7//13 5//7 1//4
f 9//21 5//7 7//13
f 23//22 19//8 17//9
f 25//25 23//22 17//9
