####
#
#	OBJ File Generated by LightWave3D
#	LightWave3D OBJ Export v2.3
#
####
o ht_hull.obj
mtllib ht_hull.mtl
g default
v -1.14 -0.250001 1.725
v -1.14 -0.250001 0.125
v -1.14 -0.250001 -0.335
v -1.14 -0.250001 -1.725
v -1.14 -0.0500007 1.905
v -1.14 -0.0500007 -0.0549999
v -1.14 -0.0500007 -0.155
v -1.14 -0.0500007 -1.905
v -1.14 0.249999 1.625
v -1.14 0.249999 -0.0549999
v -1.14 0.249999 -0.155
v -1.14 0.249999 -1.625
v -1.1106 -0.0500007 1.8756
v -1.1106 -0.0500007 -0.0255999
v -1.1106 -0.0500007 -0.1844
v -1.1106 -0.0500007 -1.8756
v -1.1106 0.219999 1.621
v -1.1106 0.219999 -0.0209999
v -1.1106 0.219999 -0.189
v -1.1106 0.219999 -1.621
v -0.7494 -0.0500007 1.8756
v -0.7494 -0.0500007 -0.0255999
v -0.7494 -0.0500007 -0.1844
v -0.7494 -0.0500007 -1.8756
v -0.7494 0.219999 1.621
v -0.7494 0.219999 -0.0209999
v -0.7494 0.219999 -0.189
v -0.7494 0.219999 -1.621
v -0.72 -0.250001 1.725
v -0.72 -0.250001 0.125
v -0.72 -0.250001 -0.335
v -0.72 -0.250001 -1.725
v -0.72 -0.0500007 1.905
v -0.72 -0.0500007 -0.0549999
v -0.72 -0.0500007 -0.155
v -0.72 -0.0500007 -1.905
v -0.72 0.249999 1.625
v -0.72 0.249999 -0.0549999
v -0.72 0.249999 -0.155
v -0.72 0.249999 -1.625
v -0.72 -0.320001 1.425
v -0.72 -0.320001 -1.565
v -0.72 -0.0700007 -1.815
v -0.72 0.0299993 1.725
v -0.72 0.129999 -1.815
v -0.72 0.279999 -1.665
v -0.72 0.279999 1.475
v -0.72 0.279999 0.395
v -0.72 0.279999 0.0450001
v -0.72 0.279999 -1.315
v -0.4 -0.320001 1.425
v -0.4 -0.320001 -1.565
v -0.4 -0.0700007 -1.815
v -0.4 0.0299993 1.725
v -0.4 0.129999 -1.815
v -0.4 0.279999 -1.665
v -0.4 0.279999 1.475
v -0.4 0.279999 0.395
v -0.4 0.419999 0.0450001
v -0.4 0.419999 -1.315
v 0.4 -0.320001 1.425
v 0.4 -0.320001 -1.565
v 0.4 -0.0700007 -1.815
v 0.4 0.0299993 1.725
v 0.4 0.129999 -1.815
v 0.4 0.279999 -1.665
v 0.4 0.279999 1.475
v 0.4 0.279999 0.395
v 0.4 0.419999 0.0450001
v 0.4 0.419999 -1.315
v 0.72 -0.320001 1.425
v 0.72 -0.320001 -1.565
v 0.72 -0.250001 1.725
v 0.72 -0.250001 0.125
v 0.72 -0.250001 -0.335
v 0.72 -0.250001 -1.725
v 0.72 -0.0700007 -1.815
v 0.72 -0.0500007 1.905
v 0.72 -0.0500007 -0.0549999
v 0.72 -0.0500007 -0.155
v 0.72 -0.0500007 -1.905
v 0.72 0.0299993 1.725
v 0.72 0.129999 -1.815
v 0.72 0.249999 1.625
v 0.72 0.249999 -0.0549999
v 0.72 0.249999 -0.155
v 0.72 0.249999 -1.625
v 0.72 0.279999 -1.665
v 0.72 0.279999 1.475
v 0.72 0.279999 0.395
v 0.72 0.279999 0.0450001
v 0.72 0.279999 -1.315
v 0.7494 -0.0500007 1.8756
v 0.7494 -0.0500007 -0.0255999
v 0.7494 -0.0500007 -0.1844
v 0.7494 -0.0500007 -1.8756
v 0.7494 0.219999 1.621
v 0.7494 0.219999 -0.0209999
v 0.7494 0.219999 -0.189
v 0.7494 0.219999 -1.621
v 1.1106 -0.0500007 1.8756
v 1.1106 -0.0500007 -0.0255999
v 1.1106 -0.0500007 -0.1844
v 1.1106 -0.0500007 -1.8756
v 1.1106 0.219999 1.621
v 1.1106 0.219999 -0.0209999
v 1.1106 0.219999 -0.189
v 1.1106 0.219999 -1.621
v 1.14 -0.250001 1.725
v 1.14 -0.250001 0.125
v 1.14 -0.250001 -0.335
v 1.14 -0.250001 -1.725
v 1.14 -0.0500007 1.905
v 1.14 -0.0500007 -0.0549999
v 1.14 -0.0500007 -0.155
v 1.14 -0.0500007 -1.905
v 1.14 0.249999 1.625
v 1.14 0.249999 -0.0549999
v 1.14 0.249999 -0.155
v 1.14 0.249999 -1.625
vn -0.986031 -0.142866 0.0856338
vn -0.986031 -0.142866 -0.0856338
vn -0.980077 -0.0656105 0.187469
vn -0.980077 -0.0656104 -0.187469
vn -0.798827 -0.316383 -0.511642
vn -0.798827 -0.316383 0.511642
vn -0.776524 -0.424536 0.465595
vn -0.776524 -0.424536 -0.465595
vn -0.705092 -0.64794 -0.288131
vn -0.705092 -0.64794 0.288131
vn -0.701113 0.713051 -0
vn -0.701113 0.713051 -6.07159e-008
vn -0.619111 -0.610261 0.494251
vn -0.619111 -0.610261 -0.494251
vn -0.57735 0.57735 -0.57735
vn -0.57735 0.57735 0.57735
vn -0.563133 0.0317131 0.825758
vn -0.531491 -0.552037 0.642473
vn -0.531491 -0.552037 -0.642473
vn -0.482154 -0.795936 0.366079
vn -0.478659 0.805256 0.349926
vn -0.478659 0.805256 -0.349926
vn -0.475963 -0.81252 -0.336557
vn -0.475963 -0.336557 -0.81252
vn -0.475963 0.336557 -0.81252
vn -0.475963 0.81252 0.336557
vn -0.454605 -0.809065 -0.37249
vn -0.454605 -0.809065 -0.37249
vn -0.454605 -0.809065 0.37249
vn -0.451248 0.821996 -0.347418
vn -0.438782 0.891032 0.116332
vn -0.16649 0.973901 0.154266
vn -0.16649 0.973901 -0.154266
vn 0 -0.92388 -0.382683
vn 0 -0.92388 -0.382683
vn 0 -0.908513 0.417857
vn 0 -0.908513 0.417857
vn 0 -0.382683 -0.92388
vn 0 -0.382683 -0.92388
vn 0 0.0383766 0.999263
vn 0 0.0383766 0.999263
vn 0 0.382684 -0.923879
vn 0 0.834841 -0.550491
vn 0 0.834841 -0.550491
vn 0 0.92388 0.382683
vn 0 0.92388 0.382683
vn 0 0.981956 0.189108
vn 0 0.981956 0.189108
vn 0.16649 0.973901 0.154266
vn 0.16649 0.973901 -0.154266
vn 0.438782 0.891032 0.116332
vn 0.451248 0.821996 -0.347418
vn 0.454605 -0.809065 0.37249
vn 0.454605 -0.809065 -0.37249
vn 0.475963 -0.81252 -0.336557
vn 0.475963 -0.336557 -0.81252
vn 0.475963 0.336557 -0.81252
vn 0.475963 0.81252 0.336557
vn 0.478659 0.805256 -0.349926
vn 0.478659 0.805256 0.349926
vn 0.482154 -0.795936 0.366079
vn 0.531491 -0.552037 0.642473
vn 0.531491 -0.552037 -0.642473
vn 0.563133 0.0317131 0.825758
vn 0.57735 0.57735 -0.57735
vn 0.57735 0.57735 0.57735
vn 0.619111 -0.610261 0.494251
vn 0.619111 -0.610261 -0.494251
vn 0.701113 0.713051 -0
vn 0.701113 0.713051 -6.07159e-008
vn 0.705092 -0.64794 0.288131
vn 0.705092 -0.64794 -0.288131
vn 0.776524 -0.424536 0.465595
vn 0.776524 -0.424536 -0.465595
vn 0.798827 -0.316383 0.511642
vn 0.798827 -0.316383 -0.511642
vn 0.980077 -0.0656105 0.187469
vn 0.980077 -0.0656104 -0.187469
vn 0.986031 -0.142866 -0.0856338
vn 0.986031 -0.142866 0.0856338
usemtl Default
s off
f 18//73 26//7 25//9 17//72
f 37//60 38//65 10//15 9//21
f 34//68 6//14 10//15 38//65
f 14//62 22//18 26//7 18//73
f 6//14 5//6 9//21 10//15
f 5//6 6//14 2//77 1//79
f 37//60 33//75 34//68 38//65
f 34//68 33//75 29//2 30//3
f 9//21 5//6 33//75 37//60
f 21//28 13//54 17//72 25//9
f 30//3 29//2 25//9 26//7
f 17//72 1//79 2//77 18//73
f 22//18 34//68 30//3 26//7
f 6//14 34//68 22//18 14//62
f 2//77 6//14 14//62 18//73
f 13//54 5//6 1//79 17//72
f 21//28 33//75 5//6 13//54
f 29//2 33//75 21//28 25//9
f 28//10 27//8 19//74 20//71
f 11//16 39//66 40//59 12//22
f 11//16 7//13 35//67 39//66
f 27//8 23//19 15//63 19//74
f 12//22 8//5 7//13 11//16
f 3//78 7//13 8//5 4//80
f 35//67 36//76 40//59 39//66
f 32//1 36//76 35//67 31//4
f 36//76 8//5 12//22 40//59
f 20//71 16//53 24//29 28//10
f 28//10 32//1 31//4 27//8
f 3//78 4//80 20//71 19//74
f 31//4 35//67 23//19 27//8
f 23//19 35//67 7//13 15//63
f 15//63 7//13 3//78 19//74
f 4//80 8//5 16//53 20//71
f 8//5 36//76 24//29 16//53
f 24//29 36//76 32//1 28//10
f 97//72 98//73 106//7 105//9
f 118//65 85//15 84//21 117//60
f 118//65 114//68 79//14 85//15
f 98//73 94//62 102//18 106//7
f 117//60 113//75 114//68 118//65
f 110//3 114//68 113//75 109//2
f 79//14 78//6 84//21 85//15
f 73//79 78//6 79//14 74//77
f 78//6 113//75 117//60 84//21
f 105//9 101//27 93//54 97//72
f 97//72 73//79 74//77 98//73
f 110//3 109//2 105//9 106//7
f 74//77 79//14 94//62 98//73
f 94//62 79//14 114//68 102//18
f 102//18 114//68 110//3 106//7
f 109//2 113//75 101//27 105//9
f 113//75 78//6 93//54 101//27
f 93//54 78//6 73//79 97//72
f 107//8 99//74 100//71 108//10
f 87//22 86//16 119//66 120//59
f 80//13 115//67 119//66 86//16
f 103//19 95//63 99//74 107//8
f 115//67 116//76 120//59 119//66
f 116//76 115//67 111//4 112//1
f 87//22 81//5 80//13 86//16
f 80//13 81//5 76//80 75//78
f 120//59 116//76 81//5 87//22
f 96//53 104//29 108//10 100//71
f 75//78 76//80 100//71 99//74
f 108//10 112//1 111//4 107//8
f 95//63 80//13 75//78 99//74
f 115//67 80//13 95//63 103//19
f 111//4 115//67 103//19 107//8
f 104//29 116//76 112//1 108//10
f 96//53 81//5 116//76 104//29
f 76//80 81//5 96//53 100//71
f 42//23 41//20 44//17 47//26 48//31 49//11 50//12 46//30 45//25 43//24
f 83//57 88//52 92//70 91//69 90//51 89//58 82//64 71//61 72//55 77//56
f 67//46 64//41 82//64 89//58
f 64//41 61//37 71//61 82//64
f 90//51 68//47 67//46 89//58
f 92//70 70//50 69//49 91//69
f 72//55 62//35 63//38 77//56
f 77//56 63//38 65//42 83//57
f 83//57 65//42 66//43 88//52
f 61//37 62//35 72//55 71//61
f 67//46 57//45 54//40 64//41
f 44//17 54//40 57//45 47//26
f 64//41 54//40 51//36 61//37
f 41//20 51//36 54//40 44//17
f 68//47 58//48 57//45 67//46
f 47//26 57//45 58//48 48//31
f 69//49 59//32 58//48 68//47
f 70//50 60//33 59//32 69//49
f 49//11 59//32 60//33 50//12
f 62//35 52//34 53//39 63//38
f 43//24 53//39 52//34 42//23
f 63//38 53//39 55//42 65//42
f 45//25 55//42 53//39 43//24
f 65//42 55//42 56//44 66//43
f 46//30 56//44 55//42 45//25
f 66//43 56//44 60//33 70//50
f 61//37 51//36 52//34 62//35
f 42//23 52//34 51//36 41//20
f 69//49 90//51 91//69
f 90//51 69//49 68//47
f 70//50 92//70 88//52
f 70//50 88//52 66//43
f 48//31 59//32 49//11
f 58//48 59//32 48//31
f 60//33 56//44 46//30
f 50//12 60//33 46//30
