####
#
#	OBJ File Generated by LightWave3D
#	LightWave3D OBJ Export v2.3
#
####
o ht_wheels.obj
mtllib ht_wheels.mtl
g default
v -1.0982 -0.38132 1.61
v -1.0982 -0.38132 1.17
v -1.0982 -0.38132 0.71
v -1.0982 -0.38132 0.25
v -1.0982 -0.38132 -0.46
v -1.0982 -0.38132 -1
v -1.0982 -0.38132 -1.54
v -1.0982 -0.27066 1.80167
v -1.0982 -0.27066 1.41833
v -1.0982 -0.27066 1.36167
v -1.0982 -0.27066 0.978332
v -1.0982 -0.27066 0.901668
v -1.0982 -0.27066 0.518332
v -1.0982 -0.27066 0.441668
v -1.0982 -0.27066 0.0583315
v -1.0982 -0.27066 -0.268332
v -1.0982 -0.27066 -0.651668
v -1.0982 -0.27066 -0.808332
v -1.0982 -0.27066 -1.19167
v -1.0982 -0.27066 -1.34833
v -1.0982 -0.27066 -1.73167
v -1.0982 -0.160001 1.61
v -1.0982 -0.160001 1.17
v -1.0982 -0.160001 0.71
v -1.0982 -0.160001 0.25
v -1.0982 -0.160001 -0.46
v -1.0982 -0.160001 -1
v -1.0982 -0.160001 -1.54
v -1.0982 -0.049341 1.80167
v -1.0982 -0.049341 1.41833
v -1.0982 -0.049341 1.36167
v -1.0982 -0.049341 0.978332
v -1.0982 -0.049341 0.901668
v -1.0982 -0.049341 0.518332
v -1.0982 -0.049341 0.441668
v -1.0982 -0.049341 0.0583315
v -1.0982 -0.049341 -0.268332
v -1.0982 -0.049341 -0.651668
v -1.0982 -0.049341 -0.808332
v -1.0982 -0.049341 -1.19167
v -1.0982 -0.049341 -1.34833
v -1.0982 -0.049341 -1.73167
v -1.0982 0.0613188 1.61
v -1.0982 0.0613188 1.17
v -1.0982 0.0613188 0.71
v -1.0982 0.0613188 0.25
v -1.0982 0.0613188 -0.46
v -1.0982 0.0613188 -1
v -1.0982 0.0613188 -1.54
v -0.7618 -0.38132 1.61
v -0.7618 -0.38132 1.17
v -0.7618 -0.38132 0.71
v -0.7618 -0.38132 0.25
v -0.7618 -0.38132 -0.46
v -0.7618 -0.38132 -1
v -0.7618 -0.38132 -1.54
v -0.7618 -0.27066 1.80167
v -0.7618 -0.27066 1.41833
v -0.7618 -0.27066 1.36167
v -0.7618 -0.27066 0.978332
v -0.7618 -0.27066 0.901668
v -0.7618 -0.27066 0.518332
v -0.7618 -0.27066 0.441668
v -0.7618 -0.27066 0.0583315
v -0.7618 -0.27066 -0.268332
v -0.7618 -0.27066 -0.651668
v -0.7618 -0.27066 -0.808332
v -0.7618 -0.27066 -1.19167
v -0.7618 -0.27066 -1.34833
v -0.7618 -0.27066 -1.73167
v -0.7618 -0.160001 1.61
v -0.7618 -0.160001 1.17
v -0.7618 -0.160001 0.71
v -0.7618 -0.160001 0.25
v -0.7618 -0.160001 -0.46
v -0.7618 -0.160001 -1
v -0.7618 -0.160001 -1.54
v -0.7618 -0.049341 1.80167
v -0.7618 -0.049341 1.41833
v -0.7618 -0.049341 1.36167
v -0.7618 -0.049341 0.978332
v -0.7618 -0.049341 0.901668
v -0.7618 -0.049341 0.518332
v -0.7618 -0.049341 0.441668
v -0.7618 -0.049341 0.0583315
v -0.7618 -0.049341 -0.268332
v -0.7618 -0.049341 -0.651668
v -0.7618 -0.049341 -0.808332
v -0.7618 -0.049341 -1.19167
v -0.7618 -0.049341 -1.34833
v -0.7618 -0.049341 -1.73167
v -0.7618 0.0613188 1.61
v -0.7618 0.0613188 1.17
v -0.7618 0.0613188 0.71
v -0.7618 0.0613188 0.25
v -0.7618 0.0613188 -0.46
v -0.7618 0.0613188 -1
v -0.7618 0.0613188 -1.54
v 0.7618 -0.38132 1.61
v 0.7618 -0.38132 1.17
v 0.7618 -0.38132 0.71
v 0.7618 -0.38132 0.25
v 0.7618 -0.38132 -0.46
v 0.7618 -0.38132 -1
v 0.7618 -0.38132 -1.54
v 0.7618 -0.27066 1.80167
v 0.7618 -0.27066 1.41833
v 0.7618 -0.27066 1.36167
v 0.7618 -0.27066 0.978332
v 0.7618 -0.27066 0.901668
v 0.7618 -0.27066 0.518332
v 0.7618 -0.27066 0.441668
v 0.7618 -0.27066 0.0583315
v 0.7618 -0.27066 -0.268332
v 0.7618 -0.27066 -0.651668
v 0.7618 -0.27066 -0.808332
v 0.7618 -0.27066 -1.19167
v 0.7618 -0.27066 -1.34833
v 0.7618 -0.27066 -1.73167
v 0.7618 -0.160001 1.61
v 0.7618 -0.160001 1.17
v 0.7618 -0.160001 0.71
v 0.7618 -0.160001 0.25
v 0.7618 -0.160001 -0.46
v 0.7618 -0.160001 -1
v 0.7618 -0.160001 -1.54
v 0.7618 -0.049341 1.80167
v 0.7618 -0.049341 1.41833
v 0.7618 -0.049341 1.36167
v 0.7618 -0.049341 0.978332
v 0.7618 -0.049341 0.901668
v 0.7618 -0.049341 0.518332
v 0.7618 -0.049341 0.441668
v 0.7618 -0.049341 0.0583315
v 0.7618 -0.049341 -0.268332
v 0.7618 -0.049341 -0.651668
v 0.7618 -0.049341 -0.808332
v 0.7618 -0.049341 -1.19167
v 0.7618 -0.049341 -1.34833
v 0.7618 -0.049341 -1.73167
v 0.7618 0.0613188 1.61
v 0.7618 0.0613188 1.17
v 0.7618 0.0613188 0.71
v 0.7618 0.0613188 0.25
v 0.7618 0.0613188 -0.46
v 0.7618 0.0613188 -1
v 0.7618 0.0613188 -1.54
v 1.0982 -0.38132 1.61
v 1.0982 -0.38132 1.17
v 1.0982 -0.38132 0.71
v 1.0982 -0.38132 0.25
v 1.0982 -0.38132 -0.46
v 1.0982 -0.38132 -1
v 1.0982 -0.38132 -1.54
v 1.0982 -0.27066 1.80167
v 1.0982 -0.27066 1.41833
v 1.0982 -0.27066 1.36167
v 1.0982 -0.27066 0.978332
v 1.0982 -0.27066 0.901668
v 1.0982 -0.27066 0.518332
v 1.0982 -0.27066 0.441668
v 1.0982 -0.27066 0.0583315
v 1.0982 -0.27066 -0.268332
v 1.0982 -0.27066 -0.651668
v 1.0982 -0.27066 -0.808332
v 1.0982 -0.27066 -1.19167
v 1.0982 -0.27066 -1.34833
v 1.0982 -0.27066 -1.73167
v 1.0982 -0.160001 1.61
v 1.0982 -0.160001 1.17
v 1.0982 -0.160001 0.71
v 1.0982 -0.160001 0.25
v 1.0982 -0.160001 -0.46
v 1.0982 -0.160001 -1
v 1.0982 -0.160001 -1.54
v 1.0982 -0.049341 1.80167
v 1.0982 -0.049341 1.41833
v 1.0982 -0.049341 1.36167
v 1.0982 -0.049341 0.978332
v 1.0982 -0.049341 0.901668
v 1.0982 -0.049341 0.518332
v 1.0982 -0.049341 0.441668
v 1.0982 -0.049341 0.0583315
v 1.0982 -0.049341 -0.268332
v 1.0982 -0.049341 -0.651668
v 1.0982 -0.049341 -0.808332
v 1.0982 -0.049341 -1.19167
v 1.0982 -0.049341 -1.34833
v 1.0982 -0.049341 -1.73167
v 1.0982 0.0613188 1.61
v 1.0982 0.0613188 1.17
v 1.0982 0.0613188 0.71
v 1.0982 0.0613188 0.25
v 1.0982 0.0613188 -0.46
v 1.0982 0.0613188 -1
v 1.0982 0.0613188 -1.54
vn -1 0 -0
vn -0.755929 -0.654654 3.82983e-007
vn -0.755929 -0.654654 3.71719e-007
vn -0.755929 -0.654654 3.37927e-007
vn -0.755929 -0.327327 -0.566946
vn -0.755929 -0.327327 -0.566946
vn -0.755929 -0.327327 -0.566947
vn -0.755929 -0.327327 -0.566947
vn -0.755929 0.327327 -0.566947
vn -0.755929 0.327327 -0.566947
vn -0.755929 0.327327 -0.566947
vn -0.755929 0.327327 -0.566947
vn -0.755929 0.654654 3.82983e-007
vn -0.755929 0.654654 3.60455e-007
vn -0.755929 0.654654 4.39305e-007
vn -0.755929 0.654654 3.94248e-007
vn -0.755929 -0.654654 4.16776e-007
vn -0.755929 -0.327327 0.566947
vn -0.755929 0.327327 0.566947
vn 0.755929 -0.654654 4.16776e-007
vn 0.755929 -0.327327 0.566947
vn 0.755929 0.327327 0.566947
vn 0.755929 -0.654654 3.82983e-007
vn 0.755929 -0.654654 3.71719e-007
vn 0.755929 -0.654654 3.37927e-007
vn 0.755929 -0.327327 -0.566946
vn 0.755929 -0.327327 -0.566946
vn 0.755929 -0.327327 -0.566947
vn 0.755929 -0.327327 -0.566947
vn 0.755929 0.327327 -0.566947
vn 0.755929 0.327327 -0.566947
vn 0.755929 0.327327 -0.566947
vn 0.755929 0.327327 -0.566947
vn 0.755929 0.654654 3.82983e-007
vn 0.755929 0.654654 3.60455e-007
vn 0.755929 0.654654 4.39305e-007
vn 0.755929 0.654654 3.94248e-007
vn 1 0 -0
usemtl Default
s off
f 90//22 98//35 49//14 41//19
f 69//21 90//22 41//19 20//18
f 56//25 69//21 20//18 7//4
f 21//8 70//29 56//25 7//4
f 42//10 91//31 70//29 21//8
f 49//14 98//35 91//31 42//10
f 91//31 98//35 77//38
f 70//29 91//31 77//38
f 56//25 70//29 77//38
f 69//21 56//25 77//38
f 90//22 69//21 77//38
f 98//35 90//22 77//38
f 41//19 49//14 28//1
f 20//18 41//19 28//1
f 7//4 20//18 28//1
f 21//8 7//4 28//1
f 42//10 21//8 28//1
f 49//14 42//10 28//1
f 78//22 92//35 43//14 29//19
f 57//21 78//22 29//19 8//18
f 50//25 57//21 8//18 1//4
f 9//8 58//29 50//25 1//4
f 30//10 79//31 58//29 9//8
f 43//14 92//35 79//31 30//10
f 79//31 92//35 71//38
f 58//29 79//31 71//38
f 50//25 58//29 71//38
f 57//21 50//25 71//38
f 78//22 57//21 71//38
f 92//35 78//22 71//38
f 29//19 43//14 22//1
f 8//18 29//19 22//1
f 1//4 8//18 22//1
f 9//8 1//4 22//1
f 30//10 9//8 22//1
f 43//14 30//10 22//1
f 86//22 96//36 47//15 37//19
f 65//21 86//22 37//19 16//18
f 54//20 65//21 16//18 5//17
f 17//5 66//26 54//20 5//17
f 38//11 87//32 66//26 17//5
f 47//15 96//36 87//32 38//11
f 87//32 96//36 75//38
f 66//26 87//32 75//38
f 54//20 66//26 75//38
f 65//21 54//20 75//38
f 86//22 65//21 75//38
f 96//36 86//22 75//38
f 37//19 47//15 26//1
f 16//18 37//19 26//1
f 5//17 16//18 26//1
f 17//5 5//17 26//1
f 38//11 17//5 26//1
f 47//15 38//11 26//1
f 88//22 97//36 48//15 39//19
f 67//21 88//22 39//19 18//18
f 55//20 67//21 18//18 6//17
f 19//5 68//26 55//20 6//17
f 40//11 89//32 68//26 19//5
f 48//15 97//36 89//32 40//11
f 89//32 97//36 76//38
f 68//26 89//32 76//38
f 55//20 68//26 76//38
f 67//21 55//20 76//38
f 88//22 67//21 76//38
f 97//36 88//22 76//38
f 39//19 48//15 27//1
f 18//18 39//19 27//1
f 6//17 18//18 27//1
f 19//5 6//17 27//1
f 40//11 19//5 27//1
f 48//15 40//11 27//1
f 84//22 95//34 46//13 35//19
f 63//21 84//22 35//19 14//18
f 53//24 63//21 14//18 4//3
f 15//7 64//28 53//24 4//3
f 36//9 85//30 64//28 15//7
f 46//13 95//34 85//30 36//9
f 85//30 95//34 74//38
f 64//28 85//30 74//38
f 53//24 64//28 74//38
f 63//21 53//24 74//38
f 84//22 63//21 74//38
f 95//34 84//22 74//38
f 35//19 46//13 25//1
f 14//18 35//19 25//1
f 4//3 14//18 25//1
f 15//7 4//3 25//1
f 36//9 15//7 25//1
f 46//13 36//9 25//1
f 80//22 93//37 44//16 31//19
f 59//21 80//22 31//19 10//18
f 51//23 59//21 10//18 2//2
f 11//6 60//27 51//23 2//2
f 32//12 81//33 60//27 11//6
f 44//16 93//37 81//33 32//12
f 81//33 93//37 72//38
f 60//27 81//33 72//38
f 51//23 60//27 72//38
f 59//21 51//23 72//38
f 80//22 59//21 72//38
f 93//37 80//22 72//38
f 31//19 44//16 23//1
f 10//18 31//19 23//1
f 2//2 10//18 23//1
f 11//6 2//2 23//1
f 32//12 11//6 23//1
f 44//16 32//12 23//1
f 82//22 94//37 45//16 33//19
f 61//21 82//22 33//19 12//18
f 52//23 61//21 12//18 3//2
f 13//6 62//27 52//23 3//2
f 34//12 83//33 62//27 13//6
f 45//16 94//37 83//33 34//12
f 83//33 94//37 73//38
f 62//27 83//33 73//38
f 52//23 62//27 73//38
f 61//21 52//23 73//38
f 82//22 61//21 73//38
f 94//37 82//22 73//38
f 33//19 45//16 24//1
f 12//18 33//19 24//1
f 3//2 12//18 24//1
f 13//6 3//2 24//1
f 34//12 13//6 24//1
f 45//16 34//12 24//1
f 196//35 147//14 139//19 188//22
f 188//22 139//19 118//18 167//21
f 167//21 118//18 105//4 154//25
f 105//4 119//8 168//29 154//25
f 119//8 140//10 189//31 168//29
f 140//10 147//14 196//35 189//31
f 147//14 140//10 126//1
f 140//10 119//8 126//1
f 119//8 105//4 126//1
f 105//4 118//18 126//1
f 118//18 139//19 126//1
f 139//19 147//14 126//1
f 196//35 188//22 175//38
f 188//22 167//21 175//38
f 167//21 154//25 175//38
f 154//25 168//29 175//38
f 168//29 189//31 175//38
f 189//31 196//35 175//38
f 190//35 141//14 127//19 176//22
f 176//22 127//19 106//18 155//21
f 155//21 106//18 99//4 148//25
f 99//4 107//8 156//29 148//25
f 107//8 128//10 177//31 156//29
f 128//10 141//14 190//35 177//31
f 141//14 128//10 120//1
f 128//10 107//8 120//1
f 107//8 99//4 120//1
f 99//4 106//18 120//1
f 106//18 127//19 120//1
f 127//19 141//14 120//1
f 190//35 176//22 169//38
f 176//22 155//21 169//38
f 155//21 148//25 169//38
f 148//25 156//29 169//38
f 156//29 177//31 169//38
f 177//31 190//35 169//38
f 194//36 145//15 135//19 184//22
f 184//22 135//19 114//18 163//21
f 163//21 114//18 103//17 152//20
f 103//17 115//5 164//26 152//20
f 115//5 136//11 185//32 164//26
f 136//11 145//15 194//36 185//32
f 145//15 136//11 124//1
f 136//11 115//5 124//1
f 115//5 103//17 124//1
f 103//17 114//18 124//1
f 114//18 135//19 124//1
f 135//19 145//15 124//1
f 194//36 184//22 173//38
f 184//22 163//21 173//38
f 163//21 152//20 173//38
f 152//20 164//26 173//38
f 164//26 185//32 173//38
f 185//32 194//36 173//38
f 195//36 146//15 137//19 186//22
f 186//22 137//19 116//18 165//21
f 165//21 116//18 104//17 153//20
f 104//17 117//5 166//26 153//20
f 117//5 138//11 187//32 166//26
f 138//11 146//15 195//36 187//32
f 146//15 138//11 125//1
f 138//11 117//5 125//1
f 117//5 104//17 125//1
f 104//17 116//18 125//1
f 116//18 137//19 125//1
f 137//19 146//15 125//1
f 195//36 186//22 174//38
f 186//22 165//21 174//38
f 165//21 153//20 174//38
f 153//20 166//26 174//38
f 166//26 187//32 174//38
f 187//32 195//36 174//38
f 193//34 144//13 133//19 182//22
f 182//22 133//19 112//18 161//21
f 161//21 112//18 102//3 151//24
f 102//3 113//7 162//28 151//24
f 113//7 134//9 183//30 162//28
f 134//9 144//13 193//34 183//30
f 144//13 134//9 123//1
f 134//9 113//7 123//1
f 113//7 102//3 123//1
f 102//3 112//18 123//1
f 112//18 133//19 123//1
f 133//19 144//13 123//1
f 193//34 182//22 172//38
f 182//22 161//21 172//38
f 161//21 151//24 172//38
f 151//24 162//28 172//38
f 162//28 183//30 172//38
f 183//30 193//34 172//38
f 191//37 142//16 129//19 178//22
f 178//22 129//19 108//18 157//21
f 157//21 108//18 100//2 149//23
f 100//2 109//6 158//27 149//23
f 109//6 130//12 179//33 158//27
f 130//12 142//16 191//37 179//33
f 142//16 130//12 121//1
f 130//12 109//6 121//1
f 109//6 100//2 121//1
f 100//2 108//18 121//1
f 108//18 129//19 121//1
f 129//19 142//16 121//1
f 191//37 178//22 170//38
f 178//22 157//21 170//38
f 157//21 149//23 170//38
f 149//23 158//27 170//38
f 158//27 179//33 170//38
f 179//33 191//37 170//38
f 192//37 143//16 131//19 180//22
f 180//22 131//19 110//18 159//21
f 159//21 110//18 101//2 150//23
f 101//2 111//6 160//27 150//23
f 111//6 132//12 181//33 160//27
f 132//12 143//16 192//37 181//33
f 143//16 132//12 122//1
f 132//12 111//6 122//1
f 111//6 101//2 122//1
f 101//2 110//18 122//1
f 110//18 131//19 122//1
f 131//19 143//16 122//1
f 192//37 180//22 171//38
f 180//22 159//21 171//38
f 159//21 150//23 171//38
f 150//23 160//27 171//38
f 160//27 181//33 171//38
f 181//33 192//37 171//38
