####
#
#	OBJ File Generated by LightWave3D
#	LightWave3D OBJ Export v2.3
#
####
o lt_tracks.obj
mtllib lt_tracks.mtl
g default
v -0.75 -0.429981 0.379147
v -0.75 -0.429981 -0.0608527
v -0.75 -0.429981 -0.500853
v -0.75 -0.429801 -0.95206
v -0.75 -0.424944 -0.7062
v -0.75 -0.419981 0.549147
v -0.75 -0.419981 -0.280853
v -0.75 -0.410237 -0.947902
v -0.75 -0.410057 0.380891
v -0.75 -0.410057 -0.0591095
v -0.75 -0.410057 -0.499109
v -0.75 -0.409981 0.159147
v -0.75 -0.405093 -0.703762
v -0.75 -0.400057 0.550891
v -0.75 -0.400057 -0.279109
v -0.75 -0.399981 0.789147
v -0.75 -0.390057 0.160891
v -0.75 -0.380057 0.790891
v -0.75 -0.378849 0.944714
v -0.75 -0.365019 -1.10864
v -0.75 -0.361189 0.935324
v -0.75 -0.355019 -1.09132
v -0.75 -0.315318 1.0785
v -0.75 -0.30472 1.06154
v -0.75 -0.280019 -1.16146
v -0.75 -0.280019 -1.1785
v -0.75 -0.245318 1.1985
v -0.75 -0.23472 1.18154
v -0.75 -0.0854654 -1.15159
v -0.75 -0.0745725 -1.16837
v -0.75 -0.0608905 1.22998
v -0.75 -0.0591474 1.21006
v -0.75 -0.0198005 -1.0879
v -0.75 -0.00023742 -1.09206
v -0.75 0.019981 -0.999981
v -0.75 0.039981 -0.699981
v -0.75 0.0399811 -0.859981
v -0.75 0.0399811 -0.999981
v -0.75 0.0599811 -0.699981
v -0.75 0.0599812 -0.859981
v -0.75 0.069981 0.160019
v -0.75 0.079981 -0.489981
v -0.75 0.084981 1.19136
v -0.75 0.0899811 0.160019
v -0.75 0.0949811 1.20868
v -0.75 0.099981 -0.039981
v -0.75 0.0999811 -0.489981
v -0.75 0.109981 0.440019
v -0.75 0.119981 -0.259981
v -0.75 0.119981 -0.0399811
v -0.75 0.129981 0.440019
v -0.75 0.139981 -0.259981
v -0.75 0.189981 0.720019
v -0.75 0.190526 1.09676
v -0.75 0.209436 1.10327
v -0.75 0.209981 0.720019
v -0.75 0.249981 0.910019
v -0.75 0.269981 0.910019
v -0.47 -0.429981 0.379147
v -0.47 -0.429981 -0.0608527
v -0.47 -0.429981 -0.500853
v -0.47 -0.429801 -0.95206
v -0.47 -0.424944 -0.7062
v -0.47 -0.419981 0.549147
v -0.47 -0.419981 -0.280853
v -0.47 -0.410237 -0.947902
v -0.47 -0.410057 0.380891
v -0.47 -0.410057 -0.0591095
v -0.47 -0.410057 -0.499109
v -0.47 -0.409981 0.159147
v -0.47 -0.405093 -0.703762
v -0.47 -0.400057 0.550891
v -0.47 -0.400057 -0.279109
v -0.47 -0.399981 0.789147
v -0.47 -0.390057 0.160891
v -0.47 -0.380057 0.790891
v -0.47 -0.378849 0.944714
v -0.47 -0.365019 -1.10864
v -0.47 -0.361189 0.935324
v -0.47 -0.355019 -1.09132
v -0.47 -0.315318 1.0785
v -0.47 -0.30472 1.06154
v -0.47 -0.280019 -1.16146
v -0.47 -0.280019 -1.1785
v -0.47 -0.245318 1.1985
v -0.47 -0.23472 1.18154
v -0.47 -0.0854654 -1.15159
v -0.47 -0.0745725 -1.16837
v -0.47 -0.0608905 1.22998
v -0.47 -0.0591474 1.21006
v -0.47 -0.0198005 -1.0879
v -0.47 -0.00023742 -1.09206
v -0.47 0.019981 -0.999981
v -0.47 0.039981 -0.699981
v -0.47 0.0399811 -0.859981
v -0.47 0.0399811 -0.999981
v -0.47 0.0599811 -0.699981
v -0.47 0.0599812 -0.859981
v -0.47 0.069981 0.160019
v -0.47 0.079981 -0.489981
v -0.47 0.084981 1.19136
v -0.47 0.0899811 0.160019
v -0.47 0.0949811 1.20868
v -0.47 0.099981 -0.039981
v -0.47 0.0999811 -0.489981
v -0.47 0.109981 0.440019
v -0.47 0.119981 -0.259981
v -0.47 0.119981 -0.0399811
v -0.47 0.129981 0.440019
v -0.47 0.139981 -0.259981
v -0.47 0.189981 0.720019
v -0.47 0.190526 1.09676
v -0.47 0.209436 1.10327
v -0.47 0.209981 0.720019
v -0.47 0.249981 0.910019
v -0.47 0.269981 0.910019
v 0.47 -0.429981 0.379147
v 0.47 -0.429981 -0.0608527
v 0.47 -0.429981 -0.500853
v 0.47 -0.429801 -0.95206
v 0.47 -0.424944 -0.7062
v 0.47 -0.419981 0.549147
v 0.47 -0.419981 -0.280853
v 0.47 -0.410237 -0.947902
v 0.47 -0.410057 0.380891
v 0.47 -0.410057 -0.0591095
v 0.47 -0.410057 -0.499109
v 0.47 -0.409981 0.159147
v 0.47 -0.405093 -0.703762
v 0.47 -0.400057 0.550891
v 0.47 -0.400057 -0.279109
v 0.47 -0.399981 0.789147
v 0.47 -0.390057 0.160891
v 0.47 -0.380057 0.790891
v 0.47 -0.378849 0.944714
v 0.47 -0.365019 -1.10864
v 0.47 -0.361189 0.935324
v 0.47 -0.355019 -1.09132
v 0.47 -0.315318 1.0785
v 0.47 -0.30472 1.06154
v 0.47 -0.280019 -1.16146
v 0.47 -0.280019 -1.1785
v 0.47 -0.245318 1.1985
v 0.47 -0.23472 1.18154
v 0.47 -0.0854654 -1.15159
v 0.47 -0.0745725 -1.16837
v 0.47 -0.0608905 1.22998
v 0.47 -0.0591474 1.21006
v 0.47 -0.0198005 -1.0879
v 0.47 -0.00023742 -1.09206
v 0.47 0.019981 -0.999981
v 0.47 0.039981 -0.699981
v 0.47 0.0399811 -0.859981
v 0.47 0.0399811 -0.999981
v 0.47 0.0599811 -0.699981
v 0.47 0.0599812 -0.859981
v 0.47 0.069981 0.160019
v 0.47 0.079981 -0.489981
v 0.47 0.084981 1.19136
v 0.47 0.0899811 0.160019
v 0.47 0.0949811 1.20868
v 0.47 0.099981 -0.039981
v 0.47 0.0999811 -0.489981
v 0.47 0.109981 0.440019
v 0.47 0.119981 -0.259981
v 0.47 0.119981 -0.0399811
v 0.47 0.129981 0.440019
v 0.47 0.139981 -0.259981
v 0.47 0.189981 0.720019
v 0.47 0.190526 1.09676
v 0.47 0.209436 1.10327
v 0.47 0.209981 0.720019
v 0.47 0.249981 0.910019
v 0.47 0.269981 0.910019
v 0.75 -0.429981 0.379147
v 0.75 -0.429981 -0.0608527
v 0.75 -0.429981 -0.500853
v 0.75 -0.429801 -0.95206
v 0.75 -0.424944 -0.7062
v 0.75 -0.419981 0.549147
v 0.75 -0.419981 -0.280853
v 0.75 -0.410237 -0.947902
v 0.75 -0.410057 0.380891
v 0.75 -0.410057 -0.0591095
v 0.75 -0.410057 -0.499109
v 0.75 -0.409981 0.159147
v 0.75 -0.405093 -0.703762
v 0.75 -0.400057 0.550891
v 0.75 -0.400057 -0.279109
v 0.75 -0.399981 0.789147
v 0.75 -0.390057 0.160891
v 0.75 -0.380057 0.790891
v 0.75 -0.378849 0.944714
v 0.75 -0.365019 -1.10864
v 0.75 -0.361189 0.935324
v 0.75 -0.355019 -1.09132
v 0.75 -0.315318 1.0785
v 0.75 -0.30472 1.06154
v 0.75 -0.280019 -1.16146
v 0.75 -0.280019 -1.1785
v 0.75 -0.245318 1.1985
v 0.75 -0.23472 1.18154
v 0.75 -0.0854654 -1.15159
v 0.75 -0.0745725 -1.16837
v 0.75 -0.0608905 1.22998
v 0.75 -0.0591474 1.21006
v 0.75 -0.0198005 -1.0879
v 0.75 -0.00023742 -1.09206
v 0.75 0.019981 -0.999981
v 0.75 0.039981 -0.699981
v 0.75 0.0399811 -0.859981
v 0.75 0.0399811 -0.999981
v 0.75 0.0599811 -0.699981
v 0.75 0.0599812 -0.859981
v 0.75 0.069981 0.160019
v 0.75 0.079981 -0.489981
v 0.75 0.084981 1.19136
v 0.75 0.0899811 0.160019
v 0.75 0.0949811 1.20868
v 0.75 0.099981 -0.039981
v 0.75 0.0999811 -0.489981
v 0.75 0.109981 0.440019
v 0.75 0.119981 -0.259981
v 0.75 0.119981 -0.0399811
v 0.75 0.129981 0.440019
v 0.75 0.139981 -0.259981
v 0.75 0.189981 0.720019
v 0.75 0.190526 1.09676
v 0.75 0.209436 1.10327
v 0.75 0.209981 0.720019
v 0.75 0.249981 0.910019
v 0.75 0.269981 0.910019
vn -0.741673 0.379777 -0.552893
vn -0.741043 -0.382394 0.551933
vn -0.735725 0.232635 0.636073
vn -0.732032 0.280216 -0.620973
vn -0.731242 -0.21414 -0.647633
vn -0.730089 -0.272643 0.626607
vn -0.723832 -0.689976 -0.00081135
vn -0.72358 0.69024 -0.000785352
vn -0.723523 0.29405 0.624539
vn -0.723162 -0.287847 -0.627838
vn -0.71964 -0.583015 -0.37711
vn -0.719224 0.586775 0.372037
vn -0.717766 -0.559501 -0.414452
vn -0.716129 0.578722 0.39018
vn -0.714622 -0.687411 -0.129544
vn -0.71379 0.689878 0.120716
vn -0.713355 -0.573295 0.40306
vn -0.712858 0.581942 -0.391378
vn -0.711312 -0.673692 0.200435
vn -0.711219 -0.0116853 0.702874
vn -0.710847 0.676861 -0.191193
vn -0.710847 -0.703342 -0.00245921
vn -0.710847 0.703342 0.00245921
vn -0.710828 0.0112583 -0.703276
vn -0.710649 -0.675482 0.196728
vn -0.710329 0.677067 -0.192388
vn -0.710162 -0.703453 0.0286926
vn -0.710162 0.703453 -0.0286926
vn -0.708673 -0.702415 0.0663004
vn -0.708673 0.702415 -0.0663004
vn -0.70856 -0.70565 5.27918e-009
vn -0.70856 0.70565 -5.27918e-009
vn -0.708094 -0.706029 -0.0112635
vn -0.708094 0.706029 0.0112635
vn -0.707997 -0.704439 0.0500629
vn -0.707997 0.704439 -0.0500629
vn -0.707929 -0.690753 0.1473
vn -0.707929 0.690753 -0.1473
vn -0.707925 -0.706107 0.0159736
vn -0.707925 0.706107 -0.0159736
vn -0.707616 0.628569 -0.322769
vn -0.707472 -0.706742 -3.95331e-009
vn -0.707472 0.706742 3.95331e-009
vn -0.707424 -0.625046 0.329953
vn -0.707323 -0.706852 0.0073872
vn -0.707321 0.706853 -0.00748374
vn -0.707257 -0.701892 -0.0844733
vn -0.707257 0.701892 0.0844733
vn -0.707226 -0.702786 0.0769643
vn -0.707203 0.703003 -0.0751671
vn -0.707198 0.707015 0.00112483
vn -0.707193 -0.707018 -0.00168743
vn -0.70714 -0.677125 0.203604
vn -0.70714 0.677125 -0.203604
vn -0.707133 -0.705302 0.0501242
vn -0.707133 0.705302 -0.0501242
vn -0.707118 -0.695645 0.126734
vn -0.707118 0.695645 -0.126734
vn 0.707118 -0.695645 0.126734
vn 0.707118 0.695645 -0.126734
vn 0.707133 -0.705302 0.0501242
vn 0.707133 0.705302 -0.0501242
vn 0.70714 -0.677125 0.203604
vn 0.70714 0.677125 -0.203604
vn 0.707193 -0.707018 -0.00168743
vn 0.707198 0.707015 0.00112483
vn 0.707203 0.703003 -0.0751671
vn 0.707226 -0.702786 0.0769643
vn 0.707257 -0.701892 -0.0844733
vn 0.707257 0.701892 0.0844733
vn 0.707321 0.706853 -0.00748374
vn 0.707323 -0.706852 0.0073872
vn 0.707424 -0.625046 0.329953
vn 0.707472 -0.706742 -3.95331e-009
vn 0.707472 0.706742 3.95331e-009
vn 0.707616 0.628569 -0.322769
vn 0.707925 -0.706107 0.0159736
vn 0.707925 0.706107 -0.0159736
vn 0.707929 -0.690753 0.1473
vn 0.707929 0.690753 -0.1473
vn 0.707997 -0.704439 0.0500629
vn 0.707997 0.704439 -0.0500629
vn 0.708094 -0.706029 -0.0112635
vn 0.708094 0.706029 0.0112635
vn 0.70856 -0.70565 5.27918e-009
vn 0.70856 0.70565 -5.27918e-009
vn 0.708673 -0.702415 0.0663004
vn 0.708673 0.702415 -0.0663004
vn 0.710162 -0.703453 0.0286926
vn 0.710162 0.703453 -0.0286926
vn 0.710329 0.677067 -0.192388
vn 0.710649 -0.675482 0.196728
vn 0.710828 0.0112583 -0.703276
vn 0.710847 -0.703342 -0.00245921
vn 0.710847 0.703342 0.00245921
vn 0.710847 0.676861 -0.191193
vn 0.711219 -0.0116853 0.702874
vn 0.711312 -0.673692 0.200435
vn 0.712858 0.581942 -0.391378
vn 0.713355 -0.573295 0.40306
vn 0.71379 0.689878 0.120716
vn 0.714622 -0.687411 -0.129544
vn 0.716129 0.578722 0.39018
vn 0.717766 -0.559501 -0.414452
vn 0.719224 0.586775 0.372037
vn 0.71964 -0.583015 -0.37711
vn 0.723162 -0.287847 -0.627838
vn 0.723523 0.29405 0.624539
vn 0.72358 0.69024 -0.000785352
vn 0.723832 -0.689976 -0.00081135
vn 0.730089 -0.272643 0.626607
vn 0.731242 -0.21414 -0.647633
vn 0.732032 0.280216 -0.620973
vn 0.735725 0.232635 0.636073
vn 0.741043 -0.382394 0.551933
vn 0.741673 0.379777 -0.552893
usemtl Default
s off
f 84//112 26//5 30//4 88//113
f 20//13 26//5 84//112 78//104
f 25//3 29//6 30//4 26//5
f 22//14 25//3 26//5 20//13
f 29//6 25//3 83//114 87//111
f 80//103 83//114 25//3 22//14
f 88//113 87//111 83//114 84//112
f 84//112 83//114 80//103 78//104
f 33//17 34//18 30//4 29//6
f 34//18 92//99 88//113 30//4
f 88//113 92//99 91//100 87//111
f 87//111 91//100 33//17 29//6
f 96//91 92//99 34//18 38//26
f 91//100 92//99 96//91 93//92
f 33//17 91//100 93//92 35//25
f 38//26 34//18 33//17 35//25
f 98//82 96//91 38//26 40//36
f 93//92 96//91 98//82 95//81
f 35//25 93//92 95//81 37//35
f 40//36 38//26 35//25 37//35
f 97//88 98//82 40//36 39//30
f 95//81 98//82 97//88 94//87
f 37//35 95//81 94//87 36//29
f 39//30 40//36 37//35 36//29
f 105//60 97//88 39//30 47//58
f 94//87 97//88 105//60 100//59
f 36//29 94//87 100//59 42//57
f 47//58 39//30 36//29 42//57
f 110//90 105//60 47//58 52//28
f 100//59 105//60 110//90 107//89
f 42//57 100//59 107//89 49//27
f 52//28 47//58 42//57 49//27
f 108//70 110//90 52//28 50//48
f 107//89 110//90 108//70 104//69
f 49//27 107//89 104//69 46//47
f 50//48 52//28 49//27 46//47
f 102//95 108//70 50//48 44//23
f 104//69 108//70 102//95 99//94
f 46//47 104//69 99//94 41//22
f 44//23 50//48 46//47 41//22
f 109//80 102//95 44//23 51//38
f 99//94 102//95 109//80 106//79
f 41//22 99//94 106//79 48//37
f 51//38 44//23 41//22 48//37
f 114//64 109//80 51//38 56//54
f 106//79 109//80 114//64 111//63
f 48//37 106//79 111//63 53//53
f 56//54 51//38 48//37 53//53
f 116//109 114//64 56//54 58//8
f 111//63 114//64 116//109 115//110
f 53//53 111//63 115//110 57//7
f 58//8 56//54 53//53 57//7
f 113//105 116//109 58//8 55//12
f 115//110 116//109 113//105 112//106
f 57//7 115//110 112//106 54//11
f 55//12 58//8 57//7 54//11
f 103//108 113//105 55//12 45//9
f 112//106 113//105 103//108 101//107
f 54//11 112//106 101//107 43//10
f 45//9 55//12 54//11 43//10
f 31//20 89//97 103//108 45//9
f 89//97 90//93 101//107 103//108
f 45//9 43//10 32//24 31//20
f 43//10 101//107 90//93 32//24
f 85//115 89//97 31//20 27//2
f 86//116 90//93 89//97 85//115
f 32//24 90//93 86//116 28//1
f 31//20 32//24 28//1 27//2
f 81//73 85//115 27//2 23//44
f 82//76 86//116 85//115 81//73
f 28//1 86//116 82//76 24//41
f 27//2 28//1 24//41 23//44
f 77//98 81//73 23//44 19//19
f 79//96 82//76 81//73 77//98
f 24//41 82//76 79//96 21//21
f 23//44 24//41 21//21 19//19
f 74//68 77//98 19//19 16//49
f 76//67 79//96 77//98 74//68
f 21//21 79//96 76//67 18//50
f 19//19 21//21 18//50 16//49
f 64//61 74//68 16//49 6//55
f 72//62 76//67 74//68 64//61
f 18//50 76//67 72//62 14//56
f 16//49 18//50 14//56 6//55
f 59//83 64//61 6//55 1//33
f 67//84 72//62 64//61 59//83
f 14//56 72//62 67//84 9//34
f 6//55 14//56 9//34 1//33
f 70//85 59//83 1//33 12//31
f 75//86 67//84 59//83 70//85
f 9//34 67//84 75//86 17//32
f 1//33 9//34 17//32 12//31
f 60//77 70//85 12//31 2//39
f 68//78 75//86 70//85 60//77
f 17//32 75//86 68//78 10//40
f 12//31 17//32 10//40 2//39
f 65//74 60//77 2//39 7//42
f 73//75 68//78 60//77 65//74
f 10//40 68//78 73//75 15//43
f 2//39 10//40 15//43 7//42
f 61//72 65//74 7//42 3//45
f 69//71 73//75 65//74 61//72
f 15//43 73//75 69//71 11//46
f 7//42 15//43 11//46 3//45
f 63//65 61//72 3//45 5//52
f 71//66 69//71 61//72 63//65
f 11//46 69//71 71//66 13//51
f 3//45 11//46 13//51 5//52
f 62//102 63//65 5//52 4//15
f 66//101 71//66 63//65 62//102
f 13//51 71//66 66//101 8//16
f 5//52 13//51 8//16 4//15
f 78//104 62//102 4//15 20//13
f 80//103 66//101 62//102 78//104
f 8//16 66//101 80//103 22//14
f 4//15 8//16 22//14 20//13
f 204//113 200//112 142//5 146//4
f 142//5 200//112 194//104 136//13
f 204//113 203//111 199//114 200//112
f 200//112 199//114 196//103 194//104
f 141//3 199//114 203//111 145//6
f 199//114 141//3 138//14 196//103
f 141//3 145//6 146//4 142//5
f 138//14 141//3 142//5 136//13
f 204//113 208//99 207//100 203//111
f 146//4 150//18 208//99 204//113
f 149//17 150//18 146//4 145//6
f 207//100 149//17 145//6 203//111
f 208//99 150//18 154//26 212//91
f 154//26 150//18 149//17 151//25
f 151//25 149//17 207//100 209//92
f 207//100 208//99 212//91 209//92
f 212//91 154//26 156//36 214//82
f 156//36 154//26 151//25 153//35
f 153//35 151//25 209//92 211//81
f 209//92 212//91 214//82 211//81
f 214//82 156//36 155//30 213//88
f 155//30 156//36 153//35 152//29
f 152//29 153//35 211//81 210//87
f 211//81 214//82 213//88 210//87
f 213//88 155//30 163//58 221//60
f 163//58 155//30 152//29 158//57
f 158//57 152//29 210//87 216//59
f 210//87 213//88 221//60 216//59
f 221//60 163//58 168//28 226//90
f 168//28 163//58 158//57 165//27
f 165//27 158//57 216//59 223//89
f 216//59 221//60 226//90 223//89
f 226//90 168//28 166//48 224//70
f 166//48 168//28 165//27 162//47
f 162//47 165//27 223//89 220//69
f 223//89 226//90 224//70 220//69
f 224//70 166//48 160//23 218//95
f 160//23 166//48 162//47 157//22
f 157//22 162//47 220//69 215//94
f 220//69 224//70 218//95 215//94
f 218//95 160//23 167//38 225//80
f 167//38 160//23 157//22 164//37
f 164//37 157//22 215//94 222//79
f 215//94 218//95 225//80 222//79
f 225//80 167//38 172//54 230//64
f 172//54 167//38 164//37 169//53
f 169//53 164//37 222//79 227//63
f 222//79 225//80 230//64 227//63
f 230//64 172//54 174//8 232//109
f 174//8 172//54 169//53 173//7
f 173//7 169//53 227//63 231//110
f 227//63 230//64 232//109 231//110
f 232//109 174//8 171//12 229//105
f 171//12 174//8 173//7 170//11
f 170//11 173//7 231//110 228//106
f 231//110 232//109 229//105 228//106
f 229//105 171//12 161//9 219//108
f 161//9 171//12 170//11 159//10
f 159//10 170//11 228//106 217//107
f 228//106 229//105 219//108 217//107
f 161//9 147//20 205//97 219//108
f 159//10 148//24 147//20 161//9
f 206//93 217//107 219//108 205//97
f 148//24 159//10 217//107 206//93
f 205//97 147//20 143//2 201//115
f 147//20 148//24 144//1 143//2
f 144//1 148//24 206//93 202//116
f 202//116 206//93 205//97 201//115
f 201//115 143//2 139//44 197//73
f 143//2 144//1 140//41 139//44
f 140//41 144//1 202//116 198//76
f 198//76 202//116 201//115 197//73
f 197//73 139//44 135//19 193//98
f 139//44 140//41 137//21 135//19
f 137//21 140//41 198//76 195//96
f 195//96 198//76 197//73 193//98
f 193//98 135//19 132//49 190//68
f 135//19 137//21 134//50 132//49
f 134//50 137//21 195//96 192//67
f 192//67 195//96 193//98 190//68
f 190//68 132//49 122//55 180//61
f 132//49 134//50 130//56 122//55
f 130//56 134//50 192//67 188//62
f 188//62 192//67 190//68 180//61
f 180//61 122//55 117//33 175//83
f 122//55 130//56 125//34 117//33
f 125//34 130//56 188//62 183//84
f 183//84 188//62 180//61 175//83
f 175//83 117//33 128//31 186//85
f 117//33 125//34 133//32 128//31
f 133//32 125//34 183//84 191//86
f 191//86 183//84 175//83 186//85
f 186//85 128//31 118//39 176//77
f 128//31 133//32 126//40 118//39
f 126//40 133//32 191//86 184//78
f 184//78 191//86 186//85 176//77
f 176//77 118//39 123//42 181//74
f 118//39 126//40 131//43 123//42
f 131//43 126//40 184//78 189//75
f 189//75 184//78 176//77 181//74
f 181//74 123//42 119//45 177//72
f 123//42 131//43 127//46 119//45
f 127//46 131//43 189//75 185//71
f 185//71 189//75 181//74 177//72
f 177//72 119//45 121//52 179//65
f 119//45 127//46 129//51 121//52
f 129//51 127//46 185//71 187//66
f 187//66 185//71 177//72 179//65
f 179//65 121//52 120//15 178//102
f 121//52 129//51 124//16 120//15
f 124//16 129//51 187//66 182//101
f 182//101 187//66 179//65 178//102
f 178//102 120//15 136//13 194//104
f 120//15 124//16 138//14 136//13
f 138//14 124//16 182//101 196//103
f 196//103 182//101 178//102 194//104
